{"frames": {

"btn_bg_disabled.png":
{
	"frame": {"x":0,"y":0,"w":204,"h":53},
	"rotated": false,
	"trimmed": false,
	"spriteSourceSize": {"x":0,"y":0,"w":204,"h":53},
	"sourceSize": {"w":204,"h":53}
},
"btn_bg_hover.png":
{
	"frame": {"x":204,"y":0,"w":204,"h":53},
	"rotated": false,
	"trimmed": false,
	"spriteSourceSize": {"x":0,"y":0,"w":204,"h":53},
	"sourceSize": {"w":204,"h":53}
},
"btn_bg_normal.png":
{
	"frame": {"x":408,"y":0,"w":204,"h":53},
	"rotated": false,
	"trimmed": false,
	"spriteSourceSize": {"x":0,"y":0,"w":204,"h":53},
	"sourceSize": {"w":204,"h":53}
},
"btn_bg_pressed.png":
{
	"frame": {"x":612,"y":0,"w":204,"h":53},
	"rotated": false,
	"trimmed": false,
	"spriteSourceSize": {"x":0,"y":0,"w":204,"h":53},
	"sourceSize": {"w":204,"h":53}
}},
"meta": {
	"app": "https://www.codeandweb.com/texturepacker",
	"version": "1.0",
	"image": "button.png",
	"format": "RGBA8888",
	"size": {"w":816,"h":53},
	"scale": "1",
	"smartupdate": "$TexturePacker:SmartUpdate:20169aa456988af44dbf95beccd33a57:73adbbb985a9d8348bfb2fde8c97d1e0:c39245c3a59c1712d97d26c862b4cbc5$"
}
}
